                             ..,codxxxxxdocldxxxxxxoc..                            
                            .:ldddxxxxxxxdddxxxxxxxdddl'.                          
                          .;ldxxxxxxxxxxxxxxxxxxxxxxxxdd:..                        
                         .:oxxddxxxxxxxxxxxxxxxxxxxxxxxxxl,                        
                        .:odooddxxxxdddxxxxxxxxxxxxxxxxxxxdo.                      
                       ':ooloddxkkddddxxxxxxxdxxxxxkOkddxxdoo.                     
                      .;:clxxdxOkddddxxxxxxxxddxxxxkOOdxOkkdo;.                    
                      ,;:oOkdxkxdddddddxxxxxxddxxxxxxkkdx00kdo:.          .,.      
                     .,,ckOoodxxxoodoodxxxxxxddxxxxxxxxxlx0kxxo:          .l'      
                     .,,cxxcodxxxolooloxxxxxxooxddxxxxxdddkxdxxl.         .'       
                    ..,;:c::dddxdoloollddxxxxoldoddooxxdxddxxxdl.                  
                    .',;:;:llodddllldc:oododxolocoolloxdodddxxdl;                  
                    .,,;:;;c:oooddlcol:ccooodl:lcoxdccodloddxxd;                   
                    .,,;;;,,coooddlc:ll;:locol:ccdkkocclloodxdl;                   
                    .',;;;,,:lllloc:,:l:;:lclc:ccc:cccocc:oxxd:                    
                     .,;;;;,;coolxd,.:doc:cldddxo,.lxdxl:;lddd,                    
                      ',,;:;;:ldk0OdxOK0Oxok0KKKOdxOK0kdoclooc.                    
                       .,;;;:;;:oO0KKKKKK000KKKKKKK0Okdxxol;c.                     
                         ,,,;;;;;lk0KKKKK0O0KKKKKK0xoloool. .                      
                          .,,,;;;:dO0KKKKOk0KKKKK0xlll:::,                         
                          ..''',',;lxO0KK0000KKK0xdl:;;;,.                         
                     ...':oxo;''';l::ldk000000Oxodkxc;c;looc''..                   
                 .';codkOOOxl,'';xkoolccdxkkkxdxxdk0xccclxO0K0Odl:;'.              
              ':ldxOKKKXKOoc:;,cxkxoldOkdc;cdkOOdlx0KOoclcldk0KKKKOxooc'           
            ;odOKXXXXXKkolclclx00OOOOOO0OxcdO0000KKKKXKklcllcldOKXXXXKOOdc.        
          .ok0XXXXXXKOlcllllx0KXKK0OOOOOOOO0KKKKKKKXXXXX0xccolc:dKKXXXXX0xc.       
         .dkKXXXXXXKO:cooc:OKXXXXXXKK00OO0KKKKKKXXXXXXXXXKdcloocckKXXXXXX0kc.      
        .cok0XXXXXXOccodlcdKXXXXXXXXXKKKK0KKKKXXXXXXXXXXXXOlcooo;oKKXXXXKxcoc.     
       .cl:lOXXXXXKd'clo::OKXXXXXXXXXXXKkxkkk0KXXXXXXXXXXX0o:lll;:oOKKXKXOc:c;     
       .:,;dKXXK0x:'.'',.'dKXXXXXXXXXXXOlcollxKXXXXXXXXXXX0l','''.';cx0KKKx,;c:    
      .;;;o0KK0x:'.......'o0XXXXXXXXXXX0ookookKKXXXXXXXXXX0l.........';d0K0x:::'   
     .:olx0KKOc'..... ...,xKKKKKKKKKKKKKKKKKKKKKXXXXKXXXXX0l...........'oKKKOddx;  
     .ckO0KX0o'......  ..,kKKKKKKKKKKKKKKKKKKKKKKKKKKKKKKK0l...  .......c0KKKXXkl. 
