                              ::ccllllcllldxxollcllllllcc;'...,::;,'........';;::cc
                            ..:::clllooolodxdollclcllllccc;'...',;,.......','',;:;;
                          .':cccccllodddddolllccc::;;:::::c:;'...',''''''.';::;,;::
                          .;cclllllodxdollllllcc::;,''...'',;;,,'..;odool:'':ccc::;
                           'cllllllcloolcccclc:ccc::;,'......';ll:,;kxkO0kl',clllll
                       ..,:ooolllllccllc;:ccloddool;',cl,.'cc,'cxkc;kxkkO0x'';cllll
                     ..:cllloooodolcccllc,:lllodxxl;cO0kc.,dOxlcx0xlkOkkkkd'.';clll
                    ';:ccccllolloollclllc:;ldddoolddk0K0xllk000kOK0OO0kkOk:','';cll
                  .,;;',:ccc;::clllllodllc:;lxOkdxO00KKKK0KKKKKKKKKKK000Oo''::,',:c
                  ..''';cc;'';,,:cclcoxxolc:;lxkO00KKKKKKKKKKKKKKKKK00Oxc'.,:cc;'',
                     .:c:,..'''.,::ccldoc;,;::lk000KKKKKKKKKKKKKKKKK0Okko;.',:ccc;,
                    .;c:,. ......',:clddldxc':oxO00KKKKKKKKKKKKKKKK00kkkkd:..',::cc
                    .::;.   .......':clooO0xloOO00KKKKKKKKKKKKKKKKK00kkkkxc.....',,
                    .;;,      .......,;:lx0000OkO00KKKK00OOOKKKKKKK0Okkkd:.........
                    .,,'       ........':ldO00OxoxO0000O00O0KKKKKK00kkkd;..........
                               ....    .;ccoO00000000Ok00000000000Oxxxl'...........
                               ..      ':::coxO000000000000000000Ooco:......  .....
                                       '::cccllcoxxkO00000000000k:';'......  ......
                                       ':ccllc;.''''',:cldxxkkxo,..................
                                      .,:cccc:'.............'''....................
                                      ,;:clcc,.................................'''.
                                     ,:::clc;'............',;;;..............',;;,.
                                     :cc:ccc,.......',;:cloolc,.............';:::;,
                                    ':cc:cc:'....'';:::;;;,,'..............';::::;,
                                    ;:c:;:c;'...'',,'.....................',::::;'.
                                   .:cc:':c;'.'''','.................''...';:::;'..
                                   .::c;';:,',,..''...............',;;;;'',;::;'...
                                   .;:c;'':;;;',,......  .........';::::;;:::;'....
                                    ,:c;..;:;..''....        ......';:::::::;'.....
                                     cc:'.;,'.......          ......',;:::::,......
                                     ;::,;;'.......           ........',;;:;......'
                                      ;:c:'........            ..........','.....',
                                      :cc'........             ..................',
