                           .:cllllllllldxdoollllllllllllcccc::;:c;. ....'''',::.   
                           .:clllllllodxxdlllllllllcccccccccc:;:;'..........'','.  
                       '''',:cllloodoollolllccccclllllc:,,,;;::;'.'............''. 
                      .ccccllllodxxxdolcllllccc::;::ccccc,....';;,.....';;,'...... 
                      .lcllllllloddocccccccccccc:;,,',,;cc,.....','...';::::;;,'...
                      .lllllllllccllc;,;:cclllc:;;;,,'.'';:'...,clc,.':ccc::::::;;,
                     .codooddollc:llcc:,,:lloolcll:;codl,',;;.'oxddol,;clccc::;;;:c
                    .:oddxddxdlcc:odolcc:,;ll:cOOk,.'oOOd:':o;cxxxOOkl,:lllllc:;,''
                   .:cllodlloolcccckOxdllc;,:okKKOo:oOK00kclkldkkkkOOl',cllllllcc:;
                   ,ccccllccllllll:d00Okxddollx0KK0O0KKKKKOO0kxOOkkkx,.';clllllllll
                   ,ccccccc;:clcll:ldO000OOkOOOOKKKKKKKKKKKKKK00kkOk:...':cllllllll
                   ,c:cccc:',;:cccdxc:d00000000KKKKKKKKKKKKKKKK00Oxc..'..':llllllll
                   ';,;ccc;...,:c:x0xclkk000KKKKKKKKKKKKKKKKKK0Okx:..'::'.':cllllll
                   ...,:cc,....':coO0OkkdO00000OOO0KKKKKKKKKKK0kkxl'.';c:,.';:ccccc
                      .;::,.....':ok000xox00Okdc;,ck0KKKKKKKK0Okkkd:..';cc:,''''',,
                        ,;,..    .cxO000000Ox:...',:d00000KK00kkkxc.....,:ccc::;,,,
                         .'.      .cx000000Od;..':lllx000000Okkko,. ......,;:cllllc
                                   .lx0000000kl,,looox00000Okxxc.. ..........,;::,.
                                    ,:oxOO00000koodxk00000kxxo,. ..................
                                    ,:lcc:codkO000000000Ollo:. ...................'
                                    ;:ccc'...,:coxO000Od;.''. ....    .............
                                   .;clcc,.......,;cc:;'...  ..... ...............,
                                   .:clcc;.................. ...........''.......,,
                                  .;:clcc:........'',,'...............',;;'......''
                                  .::ccccc,...,;:cllc;'..............,;::;,........
                                  .:::cccc:,,::ccc:,...............',::::;,........
                                  .::;;cc:;,'.''..................',::::;'.........
                                  .:c;,:;'.','....................,;::;'...........
                                  .:c:,'..','.............'',,'..';:;,.............
                                  .;:c;.''...............';:::,'',:;'..............
                                   .:c;','.....      .....,::::;;:;,...............
                                   .::,.......        .....,;:::::,........''......
                                   .:,.......         ......,::::;'.......',,,.....
