                                                                                   
                  ......         ....                                              
              .;''lc:;,'''''''''',:cc.:o,.                                         
             .:l:,'''................,:cl:c                                        
        'oc:;,::::;'...................',;clc .                                    
   ..;c,,,,,',;:::,'......................',;cd'                                   
  ,l:''.....''',;;'''........................';o.                                  
 .lc,.........'''.............'...''','.......',.                                  
 .::;'...........','..........''''',;::,.......'l,                                 
.lll:'..........,cll;.........';::;;:c:,'......';.                                 
 .'c;..'.......,ldxkkolcc:'...',;,;::;,'.........,.                                
   ..;l,.....,,ldkOOOOOOOOxl'..'''',;,.'....''...c;                                
 .l;;ll'....coclxOOOOOOOOOOo,...''.'''........'..;'                                
  ;,.;c;...;dxollokOOOOOOOkl'.....'................                                
     .;:.'';dldxl:oOOOOOOOx;;'.....................                                
      'c:c::xO0Ol:oOOOOOOxc;c,,'............... ..;.                               
      'ocdllx00d,;xOOOOOkdlooc;,,.............  .;,                                
         .cokOOkxkOOOOOOOOOkxdl::'. .......... .;:'                                
          cdOOOOOOOOOOOOOOO000xl;.'.....     .'c,                                  
  ,,',,,;:odkOOkdoxOOOOOOOO000l'.'l;... ....':d.                                   
  ;;:;,;;:clokOkxxOOOOOOOOOOOOxdxOkc;:'..:clxx                                     
..  ;:;'.',;;cxOOOOOOOOOOOOOOOO00OOxddc,cdcodo.   .'.......'                       
:,........'''';dOOkxxkkOOOOOOOOOOOOOkxddxxd;':o...looooooood:..,'                  
.........'''''',lkOOOOkOOOOOOOOOOkxddddc:l:...'...''',,,,,,;;;;c:;.                
 .;;'.';;;,''''.'cxOOOOOOOOOOkkxxkkkxdddc;...........'''.',;clc:;,:l.              
.,,'',;::;,''....;okkkkkxddddddxOOOOOkkkOko..........'',;,'',;co:c::c,.            
:,..',,,'......:dkOOkkxc:loodxkOOOOOOOOkkO0d;..........,,;,'..',:d.,co:            
'..'..........,xKKKK0kdllodxOOOOOOOOOOOOkxk0x;..................';;.,o;            
...........,;;cOKKKK0dxxdodOOOOOOOOOOOOOOkk0Kkc'.................,co'              
......   .;l;;:kKKKKOdkOxookOOOOOOOOOOOO00KKKK0x:.................,c,              
oool:'...;ol;;:d0KKKOxkOxodkOOOOOOOOO00KKKKKKKKK0x;................,o;             
00Odol::lxko:;:cx0KKOdkOkxdxkOOOOOO0KKKKKKKKKKKKKKOo'..............';dc.           
00O0kooxxOOo;:;;oOKK0dkOOkxdxxkkO00KKKKKKKKKKKKKKKK0l...............'d0:           
