 .,.,lc......................,,'.,c,..'clc'.............  ..........     ...       
.,..,l;'...............,,'':;:l;.;llc:cooo:.............    ...........            
....,::c;:;,;'... ..  .,::cloll;..,,;:;,:c'....;;....... ..    ............  ..    
,'...'cllcc:,........';,...,,.'...............,c,........',....................... 
'.....''.......'clc:cllc'... ....,.... .  ...'cl:........,;,.......................
 .'..... .......:lllllll,.,.. ..,;..,... ....lko;........';;'................''....
.,;..'........ .;ccclllc;,;,...';;,:,',,.,;cok0d,........,;;,................',:ccc
   .',......'.   ';;:ccccc;;,:cccc:coxxoxxk000Ol........;;;;;'.   .   .....;cllc:;;
    .,;...'.,... .':::ccllldk0d:;:ldO000K0KK00x' .....';;;;;;,'......','.'cllc,',,;
      .'.,;.....,. ..',:clx0KKOkkO0KKKKKKKKKKOc .....';;;;;;;;;;;;;;;;'.'cll;.';cll
         ..     ..   ,clllokO00KKKKKKKKKK0000o. .....,;;',;;;,,;::::;,.'clc;.,cllll
                 ..   .:::llloxO0KKKKKKKK000d,......';;;,,;;;,;;::::,.'clc;.,cllllc
                 '.     ..,:cloxO00KKKKKK0Ol,..,......,,',;;;;;::::;..:ll;.'cllllc:
                         ..,;::coxO00KK0Od;...'c',:,. .'.,;;;;;:::;'.:ll:'.clllc:;;
                  ..    ..,;;;;;;;:lxkko:'   .;c:cc'   '',;,;;::::,.'cll'.:lllc:;;;
                  ,'    .,;;;;;;;;;;;;,,'.    .;c;..   .',,,;:::::..:ll;.,llll:;;::
                        ..',;;;;;;;;;,....    .....     ,,'';:::::..;cl.'cllll:;::;
                    .'. ......',;;;,......    .....     .,,,;;::::;..cl.'cllll:;;:;
                     .......  ...''........   ....    ..,;;;;;:::::,.,c:''cllc:;;::
                        ::,................   ...  .',;;;;;;;;;::::;',cl:',clc:,,;:
                          ;;,,,,',''..;,'...  ...  .:::::;;;:;;;:::,.:llc,'cl:;,',;
                          :c::;...:'.';;;'..   .   .,:::::;;::;;;;:,.cll;',cl:;,..;
                          ;o:;'...;,',;;;;.    .    .;;:::;;:::;;;;'.cll,.:cc:;'..,
                          :xc;.....,;;;;,'.         .;;:::;;:::::::;,:cl'.cl::,....
                           ,d:.....';;;,'...  .     .,;:::;;;::::::::;;:''ll:;'....
                           ,k:.....';:;;,,''...      ';::::;;::::::::::;,;cc;,.....
                          .,;....''.';;;;;;;. .      .;::::;;,'',;;;;;;;;;;:;......
                          'c;,,;::,.':;;;:;,.    ..  .;:::;;'........... .,;,......
                           .:;;:::;,;:;;;:;..  .'c;. .,;,''.......       .;,,......
                           .;::;::;;;:;;;:;.  'odxo:'....''''',,,,..     ';,''.....
                             ';;:::;;:;;;:;.  .':xl'.  .;;;:;;;:::;,.   .;;;;'.....
                              ;;:::;;:;;;:;.   .':'    .,;;:;;;:::::;'  ';;:;;'....
                              ;;:::;;:;;;:;.            .,;:;;;;:::::;..';;:;:;'...
